A D/al2101////
A D/ali////
A D/apm////
A D/ark////
A D/ati////
A D/chips////
A D/cirrus////
A D/cl6420////
A D/cl64xx////
A D/compaq////
A D/cyrix////
A D/et3000////
A D/et4000////
A D/generic////
A D/gvga////
A D/i740////
A D/i810////
A D/igs////
A D/mga////
A D/mx////
A D/ncr77c22////
A D/neo////
A D/neomagic////
A D/nv////
A D/oak////
A D/p9x00////
A D/pvga1////
A D/r128////
A D/rage128////
A D/realtek////
A D/rendition////
A D/s3_savage////
A D/s3_svga////
A D/s3v////
A D/sis////
A D/smi////
A D/spc8110////
A D/tdfx////
A D/tvga8900////
A D/video7////
