A D/dec////
A D/hp////
A D/ibm////
A D/macII////
A D/netbsd////
A D/omron////
A D/sun////
A D/sunAmoeba////
A D/sunLynx////
A D/svga////
A D/vfb////
A D/xfree68////
A D/xfree86////
A D/xfree98////
A D/xnest////
