A D/ARABIC////
A D/ARMSCII8////
A D/BIG5////
A D/BIG5HKSCS////
A D/DOSENCODING////
A D/GB18030////
A D/GB2312////
A D/GBK////
A D/GEORGIAN////
A D/ISO8859.1////
A D/ISO8859.10////
A D/ISO8859.11////
A D/ISO8859.13////
A D/ISO8859.14////
A D/ISO8859.15////
A D/ISO8859.2////
A D/ISO8859.3////
A D/ISO8859.4////
A D/ISO8859.5////
A D/ISO8859.6////
A D/ISO8859.7////
A D/ISO8859.8////
A D/ISO8859.9////
A D/JISX0201////
A D/JISX0208////
A D/JISX0212////
A D/KOI8////
A D/KSC5601////
A D/KSCJOHAB////
A D/MULEENCODING////
A D/TCVN////
A D/VISCII////
A D/module////
