A D/amoeba////
A D/bsd////
A D/bsdi////
A D/dgux////
A D/hurd////
A D/libusb////
A D/linux////
A D/lynxos////
A D/mach////
A D/minix////
A D/misc////
A D/nto////
A D/os2////
A D/qnx////
A D/sco////
A D/shared////
A D/solx86////
A D/sysv////
