A D/common////
A D/dri_client////
A D/fb////
A D/ffb////
A D/gamma////
A D/i810////
A D/i830////
A D/i915////
A D/mach64////
A D/mga////
A D/r128////
A D/r200////
A D/radeon////
A D/savage////
A D/sis////
A D/tdfx////
A D/unichrome////
A D/x11////
