A D/77c32blt////
A D/LinkKit////
A D/accel////
A D/common////
A D/common_hw////
A D/doc////
A D/etc////
A D/fbdev////
A D/imstt////
A D/mach64////
A D/os-support////
A D/pm2////
A D/vga256////
A D/xaa////
