A D/bsfntnmlst////
A D/cntxtdpndn////
A D/crtfntst////
A D/extntsoffn////
A D/fntsoffnts////
A D/frfntst////
A D/lcloffntst////
A D/mbdrwimgst////
A D/mbdrwstr////
A D/mbdrwtxt////
A D/mbtxtescpm////
A D/mbtxtextnt////
A D/mbtxtprchr////
A D/rmgtdtbs////
A D/rmlclofdtb////
A D/rmstdtbs////
A D/scrnrsrcst////
A D/spprtslcl////
A D/stlclmdfrs////
A D/wcdrwimgst////
A D/wcdrwstr////
A D/wcdrwtxt////
A D/wctxtescpm////
A D/wctxtextnt////
A D/wctxtprchr////
