A D/allcclr////
A D/allcclrcll////
A D/allcclrpln////
A D/allcnmdclr////
A D/allwevnts////
A D/bdrqst////
A D/bll////
A D/chngactvpn////
A D/chnggc////
A D/chnghsts////
A D/chngkybrdc////
A D/chngkybrdm////
A D/chngpntrcn////
A D/chngprprty////
A D/chngsvst////
A D/chngwdwatt////
A D/clrar////
A D/clsfnt////
A D/cnfgrwdw////
A D/cnvrtslctn////
A D/cpyar////
A D/cpyclrmpan////
A D/cpygc////
A D/cpypln////
A D/crcltwdw////
A D/crtclrmp////
A D/crtcrsr////
A D/crtgc////
A D/crtglyphcr////
A D/crtpxmp////
A D/crtwdw////
A D/dltprprty////
A D/dstrysbws////
A D/dstrywdw////
A D/fllply////
A D/frclrmp////
A D/frclrs////
A D/frcrsr////
A D/frcscrnsvr////
A D/frgc////
A D/frpxmp////
A D/grbbttn////
A D/grbky////
A D/grbkybrd////
A D/grbpntr////
A D/grbsrvr////
A D/gtatmnm////
A D/gtfntpth////
A D/gtgmtry////
A D/gtimg////
A D/gtinptfcs////
A D/gtkybrdcnt////
A D/gtkybrdmpp////
A D/gtmdfrmppn////
A D/gtmtnevnts////
A D/gtpntrcntr////
A D/gtpntrmppn////
A D/gtprprty////
A D/gtscrnsvr////
A D/gtslctnown////
A D/gtwdwattrb////
A D/imgtxt16////
A D/imgtxt8////
A D/instllclrm////
A D/intrnatm////
A D/kllclnt////
A D/lkpclr////
A D/lstextnsns////
A D/lstfnts////
A D/lstfntswth////
A D/lsthsts////
A D/lstinstlld////
A D/lstprprts////
A D/mpsbws////
A D/mpwdw////
A D/noprtn////
A D/opndsply////
A D/opnfnt////
A D/plyarc////
A D/plyfllarc////
A D/plyfllrctn////
A D/plyln////
A D/plypnt////
A D/plyrctngl////
A D/plysgmnt////
A D/plytxt16////
A D/plytxt8////
A D/ptimg////
A D/qrybstsz////
A D/qryclrs////
A D/qryextnsn////
A D/qryfnt////
A D/qrykymp////
A D/qrypntr////
A D/qrytr////
A D/qrytxtextn////
A D/rclrcrsr////
A D/rprntwdw////
A D/rttprprts////
A D/sndevnt////
A D/staccsscnt////
A D/stclprctng////
A D/stclsdwnmd////
A D/stdshs////
A D/stfntpth////
A D/stinptfcs////
A D/stmdfrmppn////
A D/stpntrmppn////
A D/strclrs////
A D/strnmdclr////
A D/stscrnsvr////
A D/stslctnown////
A D/trnsltcrds////
A D/ungrbbttn////
A D/ungrbky////
A D/ungrbkybrd////
A D/ungrbpntr////
A D/ungrbsrvr////
A D/unmpsbws////
A D/unmpwdw////
A D/unnstllclr////
A D/wrppntr////
