A D/addpxl////
A D/clpbx////
A D/crtbtmpfrm////
A D/crtimg////
A D/crtpxmpfrm////
A D/crtrgn////
A D/dltcntxt////
A D/dstryimg////
A D/dstryrgn////
A D/emptyrgn////
A D/eqlrgn////
A D/fndcntxt////
A D/ftchbffr////
A D/ftchbyts////
A D/gtdflt////
A D/gtpxl////
A D/gtvslinf////
A D/intrsctrgn////
A D/iscrsrky////
A D/isfnctnky////
A D/iskypdky////
A D/ismdfrky////
A D/ismscfnctn////
A D/ispfky////
A D/kycdtkysym////
A D/kysymtkycd////
A D/kysymtstr////
A D/lkpkysym////
A D/lkpstr////
A D/mtchvslinf////
A D/offstrgn////
A D/plygnrgn////
A D/pntinrgn////
A D/prmllc////
A D/prsclr////
A D/prsgmtry////
A D/ptpxl////
A D/rbndkysym////
A D/rctinrgn////
A D/rdbtmpfl////
A D/rfrshkybrd////
A D/rmdstrydtb////
A D/rmgtfldtbs////
A D/rmgtrsrc////
A D/rmgtstrdtb////
A D/rmintlz////
A D/rmmrgdtbss////
A D/rmprscmmnd////
A D/rmptfldtbs////
A D/rmptlnrsrc////
A D/rmptrsrc////
A D/rmptstrrsr////
A D/rmqgtrsrc////
A D/rmqgtsrchl////
A D/rmqgtsrchr////
A D/rmqptrsrc////
A D/rmqptstrrs////
A D/rmqrktstr////
A D/rmstrtbndn////
A D/rmstrtqrk////
A D/rmstrtqrkl////
A D/rmunqqrk////
A D/rsrcmngrst////
A D/rttbffrs////
A D/sbimg////
A D/sbtrctrgn////
A D/shrnkrgn////
A D/strbffr////
A D/strbyts////
A D/strgn////
A D/strtkysym////
A D/svcntxt////
A D/unnrctwthr////
A D/unnrgn////
A D/unqcntxt////
A D/wrtbtmpfl////
A D/xrrgn////
