A D/allplns////
A D/blckpxl////
A D/blckpxlofs////
A D/btmpbtordr////
A D/btmppd////
A D/btmpunt////
A D/cllsofscrn////
A D/clsdsply////
A D/cnnctnnmbr////
A D/dfltclrmp////
A D/dfltclrmpo////
A D/dfltdpth////
A D/dfltdpthof////
A D/dfltgc////
A D/dfltgcofsc////
A D/dfltrtwdw////
A D/dfltscrn////
A D/dfltscrnof////
A D/dfltvsl////
A D/dfltvslofs////
A D/dsbckngstr////
A D/dsplyclls////
A D/dsplyhght////
A D/dsplyhghtm////
A D/dsplyofscr////
A D/dsplyplns////
A D/dsplystr////
A D/dsplywdth////
A D/dsplywdthm////
A D/dssvundrs////
A D/evntmskofs////
A D/fr////
A D/hghtmmofsc////
A D/hghtofscrn////
A D/imgbytordr////
A D/lstdpths////
A D/lstknwnrqs////
A D/lstpxmpfrm////
A D/mncmpsofsc////
A D/mxcmpsofsc////
A D/nop////
A D/nxtrqst////
A D/opndsply////
A D/plnsofscrn////
A D/prtclrvsn////
A D/prtclvrsn////
A D/qlngth////
A D/rtwdw////
A D/rtwdwofscr////
A D/scrncnt////
A D/scrnnmbrof////
A D/scrnofdspl////
A D/srvrvndr////
A D/vndrrls////
A D/wdthmmofsc////
A D/wdthofscrn////
A D/whtpxl////
A D/whtpxlofsc////
