A D/autofit////
A D/autohint////
A D/base////
A D/bdf////
A D/cache////
A D/cff////
A D/cid////
A D/gzip////
A D/lzw////
A D/otlayout////
A D/pcf////
A D/pfr////
A D/psaux////
A D/pshinter////
A D/psnames////
A D/raster////
A D/sfnt////
A D/smooth////
A D/tools////
A D/truetype////
A D/type1////
A D/type42////
A D/winfonts////
